Exploration of freshwater fish datasets
…
## # A tibble: 1 x 2
##   institutionCode     n
##   <chr>           <int>
## 1 nzf              4557

collectionCode_count

## # A tibble: 1 x 2
##   collectionCode     n
##   <chr>          <int>
## 1 so2-fishes      4557

datasetName_count

## # A tibble: 28 x 2
##    datasetName                                                           n
##    <chr>                                                             <int>
##  1 ""                                                                 4267
##  2 "Forsvarsbygg"                                                      191
##  3 "Kartleggingsmidler Sabima"                                          21
##  4 "NF-vrige arter"                                                 12
##  5 "Artsjakten!"                                                        10
##  6 "Gjeddtjrna"                                                        8
##  7 "Statens naturoppsyn"                                                 8
##  8 "Beskssenter vtmark Nordre yeren - generelle observasjoner"     7
##  9 "Viltkartlegging i vtmarksbiotopar langs Surna"                     5
## 10 "Abbor i Stavsjen"                                                  3
## # ... with 18 more rows
